{
"pattern without moves": ["\\a.*Game (?P<game>\\d+) \\((?P<white>\\w+) vs. (?P<black>\\w+)\\).*Move # : (?P<movenumber>\\d+) \\((?P<sidetomove>\\w+)\\).*Black Clock : (?P<blackclock>[:\\d]+).* White Clock : (?P<whiteclock>[:\\d]+).* Black Strength : (?P<blackstrength>[\\d]+).* White Strength : (?P<whitestrength>[\\d]+)", true], 
"pattern with moves": ["\\a.*Game (?P<game>\\d+) \\((?P<white>\\w+) vs. (?P<black>\\w+)\\).*Move # : (?P<movenumber>\\d+) \\((?P<sidetomove>\\w+)\\).*Moves : .(?P<move>[a-zA-Z0-9\\-=\\+]+).*\\((?P<timeused>[:\\d]+)\\).*Black Clock : (?P<blackclock>[:\\d]+).* White Clock : (?P<whiteclock>[:\\d]+).* Black Strength : (?P<blackstrength>[\\d]+).* White Strength : (?P<whitestrength>[\\d]+)", true], 
"illegal move": ["Illegal move (.*).", false], 
"game over": ["{.*}", false],
"seek game": ["(?P<player>\\w+) \\(.{3,4}\\) seeking (?P<minutes>\\d+) (?P<seconds>\\d+) \\w+ (blitz|standard|lightning) (\\[\\w+\\]\\s)*\\(\\\"play (?P<gamenumber>\\d+)\\\" .*", "multiline"],
"game won": ["{Game \\d+ \\((?P<whiteplayer>\\w+) vs. (?P<blackplayer>\\w+)\\) (?P<player>\\w+) (?P<message>.*)} (?P<whitepoint>\\d)-(?P<blackpoint>\\d)"
, false],
"game drawn": ["{Game \\d+ \\((?P<whiteplayer>\\w+) vs. (?P<blackplayer>\\w+)\\) (?P<message>.*)} (?P<whitepoint>\\d/\\d)-(?P<blackpoint>\\d/\\d)"
, false]
}